<?xml version="1.0"?>
<robot name="velodyne">

    <link name="box">
      <inertial>
        <mass value="1"/>
        <inertia ixx="0.0108" ixy="0" ixz="0" iyy="0.0083" iyz="0" izz="0.0042"/>
      </inertial>

      <collision>
        <geometry>
          <box size= "0.3 0.3 0.3" />
        </geometry>
      </collision>

      <visual>
        <geometry>
          <box size= "0.3 0.3 0.3" />
        </geometry>
      </visual>
    </link>

    <joint name="box_base_joint" type="fixed">
      <origin xyz="0 0 0.21"/>
      <parent link="box"/>
      <child link="base"/>
    </joint>

    <joint name="base_top_joint" type="continuous">
      <origin xyz="0 0 0.001"/>
      <parent link="base"/>
      <child link="top"/>
      <axis xyz="0 0 1" rpy="0 0 0"/>
    </joint>

    <link name="base">

      <inertial>
        <mass value="1.2"/>
        <inertia ixx="0.001087473" ixy="0" ixz="0" iyy="0.001087473" iyz="0" izz="0.001092437" />
      </inertial>

      <collision>
        <origin xyz="0 0 -0.0287"/>
        <geometry>
          <cylinder radius="0.04267" length="0.05867" />
        </geometry>
      </collision>

      <visual>
        <origin xyz="0 0 -0.0587"/> <!-- Little offset from collision so that the mesh matches it -->
        <geometry>
          <mesh filename="package://velodyne_description/meshes/velodyne_base.dae" />
        </geometry>
      </visual>

    </link>


    <link name="top">

      <inertial>
        <mass value="0.1"/>
        <inertia ixx="0.000090623" ixy="0" ixz="0" iyy="0.000090623" iyz="0" izz="0.000091036" />
      </inertial>

      <collision>
        <origin xyz="0 0 0.0376785" rpy="0 0 1.5707" />
        <geometry>
          <cylinder radius="0.04267" length="0.07357" />
        </geometry>
      </collision>

      <visual>
        <origin xyz="0 0 0" rpy="0 0 1.5707" />  <!-- Little offset from collision so that the mesh matches it -->
        <geometry>
          <mesh filename="package://velodyne_description/meshes/velodyne_top.dae" />
        </geometry>
      </visual>

    </link>


    <gazebo reference="top">
      <sensor type="ray" name="velodyne-HDL32E">
          <pose>0 0 0 0 0 0</pose>
          <visualize>false</visualize>
          <update_rate>10</update_rate>
          <ray>
            <scan>
              <horizontal>
                <samples>2187</samples>
                <resolution>1</resolution>
                <min_angle>-3.1415926</min_angle>
                <max_angle>3.1415926</max_angle>
              </horizontal>
              <vertical>
                <samples>32</samples>
                <resolution>1</resolution>
                <min_angle>-0.535292</min_angle>
                <max_angle> 0.1862265</max_angle>
              </vertical>
            </scan>
            <range>
              <min>0.3</min>
              <max>131</max>
              <resolution>0.001</resolution>
            </range>
            <noise>
              <type>gaussian</type>
              <mean>0.0</mean>
              <stddev>0.0</stddev>
            </noise>
          </ray>
          <plugin name="gazebo_ros_laser_controller" filename="package://velodyne_description/plugins/libgazebo_ros_velodyne_laser.so">
            <topicName>/velodyne_points</topicName>
            <frameName>top</frameName>
            <min_range>0.9</min_range>
            <max_range>130</max_range>
            <gaussianNoise>0.008</gaussianNoise>
          </plugin>
        </sensor>
    </gazebo>

</robot>
